\babel@toc {spanish}{}
\contentsline {chapter}{Índice general}{\es@scroman {i}}% 
\contentsline {chapter}{\chapternumberline {1}Memoria}{1}% 
\contentsline {section}{\numberline {1.1}Presentación}{1}% 
\contentsline {subsection}{Resumen}{1}% 
\contentsline {subsection}{Motivación}{1}% 
\contentsline {subsection}{Alcance}{1}% 
\contentsline {subsection}{Objetivo}{1}% 
\contentsline {section}{\numberline {1.2}Exposición}{1}% 
\contentsline {subsection}{Tema XXX}{1}% 
\contentsline {section}{\numberline {1.3}Conclusiones}{1}% 
\contentsline {subsection}{Grado de Consecución de los Objetivos}{1}% 
\contentsline {subsection}{Análisis del Alcance}{1}% 
\contentsline {subsection}{Puntos de Interés}{1}% 
\contentsline {subsection}{Aprendizajes}{1}% 
\contentsline {subsection}{Reflexión}{1}% 
\contentsline {chapter}{\chapternumberline {2}Anexos}{3}% 
\contentsline {section}{\numberline {2.1}Diagramas UML}{3}% 
\contentsline {section}{\numberline {2.2}Código}{3}% 
\contentsline {chapter}{Índice de figuras}{3}% 
\contentsline {chapter}{Índice de cuadros}{3}% 
